{
  "start": {
    "type": "bool",
    "label": "Start",
    "desc": "Record start of the video.",
    "optional": true,
    "value": true
  },
  "complete": {
    "type": "bool",
    "label": "Complete",
    "desc": "Record end of the video.",
    "optional": true,
    "value": true
  },
  "psb": {
    "type": "bool",
    "label": "Pause, Seeking, Buffering",
    "desc": "Record pause, seeking and buffering of the video.",
    "optional": true,
    "value": true
  },
  "apisupport": {
    "type": "bool",
    "label": "API support",
    "desc": "Enable API support and reload videos.",
    "optional": false,
    "value": true
  },
  "progress": {
    "type": "text",
    "value": "25|50|75|98",
    "label": "Progress",
    "desc": "Record progress of the video in % separated by |.",
    "optional": true
  }
}